…
```
## -- Initial Conditions ($inits): -------------------------------------------
```

```
## depot centr  peri   eff 
##     0     0     0     1
```

```
## -- First part of data (object): -------------------------------------------
```

```
## # A tibble: 241 x 7
##    time depot centr  peri   eff    C2    C3
##   <dbl> <dbl> <dbl> <dbl> <dbl> <dbl> <dbl>
## 1  0    10000     0     0  1.00   0   0    
## 2  1.00  7453  1784   273  1.08  44.4 0.920
## 3  2.00  5554  2206   794  1.18  54.9 2.67 
## 4  3.00  4140  2087  1324  1.23  51.9 4.46 
## 5  4.00  3085  1789  1776  1.23  44.5 5.98 
## 6  5.00  2299  1467  2132  1.21  36.5 7.18 
## # ... with 235 more rows
```
…
```
## -- Initial Conditions ($inits): -------------------------------------------
```

```
## depot centr  peri   eff 
##     0     0     0     1
```

```
## -- First part of data (object): -------------------------------------------
```

```
## # A tibble: 241 x 7
##    time depot centr  peri   eff    C2    C3
##   <dbl> <dbl> <dbl> <dbl> <dbl> <dbl> <dbl>
## 1  0    10000     0     0  1.00   0   0    
## 2  1.00  7453  1784   273  1.08  44.4 0.920
## 3  2.00  5554  2206   794  1.18  54.9 2.67 
## 4  3.00  4140  2087  1324  1.23  51.9 4.46 
## 5  4.00  3085  1789  1776  1.23  44.5 5.98 
## 6  5.00  2299  1467  2132  1.21  36.5 7.18 
## # ... with 235 more rows
```
…
```
## -- Initial Conditions ($inits): -------------------------------------------
```

```
## depot centr  peri   eff 
##     0     0     0     1
```

```
## -- First part of data (object): -------------------------------------------
```

```
## # A tibble: 241 x 7
##    time depot centr  peri   eff    C2    C3
##   <dbl> <dbl> <dbl> <dbl> <dbl> <dbl> <dbl>
## 1  0    10000     0     0  1.00   0   0    
## 2  1.00  7453  1784   273  1.08  44.4 0.920
## 3  2.00  5554  2206   794  1.18  54.9 2.67 
## 4  3.00  4140  2087  1324  1.23  51.9 4.46 
## 5  4.00  3085  1789  1776  1.23  44.5 5.98 
## 6  5.00  2299  1467  2132  1.21  36.5 7.18 
## # ... with 235 more rows
```
…
```
## -- Initial Conditions ($inits): -------------------------------------------
```

```
## depot centr  peri   eff 
##     0     0     0     2
```

```
## -- First part of data (object): -------------------------------------------
```

```
## # A tibble: 241 x 7
##    time depot centr  peri   eff    C2    C3
##   <dbl> <dbl> <dbl> <dbl> <dbl> <dbl> <dbl>
## 1  0    10000     0     0  2.00   0   0    
## 2  1.00  7453  1784   273  1.50  44.4 0.920
## 3  2.00  5554  2206   794  1.37  54.9 2.67 
## 4  3.00  4140  2087  1324  1.31  51.9 4.46 
## 5  4.00  3085  1789  1776  1.27  44.5 5.98 
## 6  5.00  2299  1467  2132  1.23  36.5 7.18 
## # ... with 235 more rows
```
…
```
## -- Initial Conditions ($inits): -------------------------------------------
```

```
## depot centr  peri   eff 
##     0     0     0     2
```

```
## -- First part of data (object): -------------------------------------------
```

```
## # A tibble: 20 x 7
##    time depot centr  peri   eff    C2     C3
## * <dbl> <dbl> <dbl> <dbl> <dbl> <dbl>  <dbl>
## 1 0     10000     0   0    2.00   0   0     
## 2 0.263  9255   677  24.3  1.79  16.8 0.0817
## 3 0.526  8566  1187  88.7  1.65  29.5 0.299 
## 4 0.789  7929  1562 183    1.55  38.9 0.615 
## 5 1.05   7338  1830 298    1.49  45.5 1.00  
## 6 1.32   6792  2013 427    1.44  50.1 1.44  
## # ... with 14 more rows
```
…
```
## -- Initial Conditions ($inits): -------------------------------------------
```

```
## depot centr  peri   eff 
##     0     0     0     2
```

```
## -- First part of data (object): -------------------------------------------
```

```
## # A tibble: 20 x 7
##    time depot centr   peri   eff    C2    C3
##   <dbl> <dbl> <dbl>  <dbl> <dbl> <dbl> <dbl>
## 1 0     10000     0    0    2.00   0   0    
## 2 0.263  7686  2098   77.6  1.82  52.2 0.261
## 3 0.526  5908  3348  267    1.74  83.3 0.900
## 4 0.789  4541  4010  519    1.69  99.8 1.75 
## 5 1.05   3490  4273  800    1.67 106   2.69 
## 6 1.32   2683  4272 1086    1.64 106   3.66 
## # ... with 14 more rows
```
…
```
## -- Initial Conditions ($inits): -------------------------------------------
```

```
## eff 
##   1
```

```
## -- First part of data (object): -------------------------------------------
```

```
## # A tibble: 241 x 3
##    time   eff    C2
##   <dbl> <dbl> <dbl>
## 1  0     1.00   0  
## 2  1.00  1.08  44.4
## 3  2.00  1.18  54.9
## 4  3.00  1.23  51.9
## 5  4.00  1.23  44.5
## 6  5.00  1.21  36.5
## # ... with 235 more rows
```
…
```
## -- Initial Conditions ($inits): -------------------------------------------
```

```
## eff 
##   2
```

```
## -- First part of data (object): -------------------------------------------
```

```
## # A tibble: 241 x 3
##    time   eff    C2
##   <dbl> <dbl> <dbl>
## 1  0     2.00   0  
## 2  1.00  1.50  44.4
## 3  2.00  1.37  54.9
## 4  3.00  1.31  51.9
## 5  4.00  1.27  44.5
## 6  5.00  1.23  36.5
## # ... with 235 more rows
```
…
```
## -- Initial Conditions ($inits): -------------------------------------------
```

```
## eff 
##   1
```

```
## -- First part of data (object): -------------------------------------------
```

```
## # A tibble: 241 x 3
##    time   eff    C2
##   <dbl> <dbl> <dbl>
## 1  0     1.00   0  
## 2  1.00  1.08  44.4
## 3  2.00  1.18  54.9
## 4  3.00  1.23  51.9
## 5  4.00  1.23  44.5
## 6  5.00  1.21  36.5
## # ... with 235 more rows
```
…
```
## -- Initial Conditions ($inits): -------------------------------------------
```

```
## eff 
##   1
```

```
## -- First part of data (object): -------------------------------------------
```

```
## # A tibble: 241 x 3
##    time   eff    C2
##   <dbl> <dbl> <dbl>
## 1  0     1.00   0  
## 2  1.00  1.34 131  
## 3  2.00  1.39  64.8
## 4  3.00  1.30  33.2
## 5  4.00  1.19  18.0
## 6  5.00  1.12  10.7
## # ... with 235 more rows
```
…
```
##         KA         CL         V2          Q         V3       Kin0 
##   0.294000  18.600000  40.200000  10.500000 297.000000   1.000000 
##       Kout       EC50         Tz        amp         pi 
##   1.000000 200.000000   8.000000   0.100000   3.141593
```

```
## -- Covariates ($covs): ----------------------------------------------------
```

```
## # A tibble: 100 x 1
##   ctime
##   <dbl>
## 1  8.00
## 2  8.48
## 3  8.97
## 4  9.45
## 5  9.94
## 6 10.4 
## # ... with 94 more rows
```
```
## -- Initial Conditions ($inits): -------------------------------------------
```

```
## eff 
##   1
```

```
## -- First part of data (object): -------------------------------------------
```

```
## # A tibble: 100 x 4
##    time   eff    C2   Kin
##   <dbl> <dbl> <dbl> <dbl>
## 1 0      1.00   0    1.10
## 2 0.485  1.07  27.8  1.10
## 3 0.970  1.14  43.7  1.09
## 4 1.45   1.21  51.8  1.09
## 5 1.94   1.26  54.8  1.08
## 6 2.42   1.30  54.6  1.07
## # ... with 94 more rows
```
…
```
##         KA         CL         V2          Q         V3       Kin0 
##   0.294000  18.600000  40.200000  10.500000 297.000000   1.000000 
##       Kout       EC50         Tz        amp         pi 
##   1.000000 200.000000   8.000000   0.100000   3.141593
```

```
## -- Covariates ($covs): ----------------------------------------------------
```

```
## # A tibble: 100 x 1
##   ctime
##   <dbl>
## 1  8.00
## 2  8.48
## 3  8.97
## 4  9.45
## 5  9.94
## 6 10.4 
## # ... with 94 more rows
```
```
## -- Initial Conditions ($inits): -------------------------------------------
```

```
## eff 
##   1
```

```
## -- First part of data (object): -------------------------------------------
```

```
## # A tibble: 100 x 4
##    time   eff    C2   Kin
##   <dbl> <dbl> <dbl> <dbl>
## 1 0      1.00   0    1.10
## 2 0.485  1.07  27.8  1.10
## 3 0.970  1.15  43.7  1.09
## 4 1.45   1.21  51.8  1.09
## 5 1.94   1.27  54.8  1.08
## 6 2.42   1.30  54.6  1.07
## # ... with 94 more rows
```
…
```
## -- Initial Conditions ($inits): -------------------------------------------
```

```
##  y dy 
##  2  0
```

```
## -- First part of data (object): -------------------------------------------
```

```
## # A tibble: 200 x 3
##     time     y      dy
##    <dbl> <dbl>   <dbl>
## 1 0       22.0  0     
## 2 0.0503  22.0 -0.0456
## 3 0.101   22.0 -0.0456
## 4 0.151   22.0 -0.0456
## 5 0.201   22.0 -0.0456
## 6 0.251   22.0 -0.0456
## # ... with 194 more rows
```
…
```
## -- Initial Conditions ($inits): -------------------------------------------
```

```
##  y dy 
##  2  0
```

```
## -- First part of data (object): -------------------------------------------
```

```
## # A tibble: 200 x 3
##     time     y         dy
##    <dbl> <dbl>      <dbl>
## 1 0       22.0  0        
## 2 0.0503  22.0 -0.0000455
## 3 0.101   22.0 -0.0000455
## 4 0.151   22.0 -0.0000455
## 5 0.201   22.0 -0.0000455
## 6 0.251   22.0 -0.0000455
## # ... with 194 more rows
```
…
