RxODE Events
…
The only thing that is needed to expand an event table is a list of IDs that you want to expand;

ev <- et(timeUnits="hr") %>%
    et(amt=10000, until = set_units(3, days), ii=12) %>% # loading doses
    et(seq(0,48,length.out=200)) %>%
    et(id=1:4)

ev

#> -------------------------- EventTable with 804 records ------------------------- 
#>    4 individuals
#>    4 dosing records (see x$get.dosing(); add with add.dosing or et)
#>    800 observation times (see x$get.sampling(); add with add.sampling or et)
#> -- First part of x: ------------------------------------------------------------ 
#> # A tibble: 804 x 6
#>       id      time   amt    ii  addl  evid
#>    <int>       [h] <dbl>   [h] <int> <int>
#>  1     1 0.0000000    NA    NA    NA     0
#>  2     1 0.0000000 10000    12     5     1
#>  3     1 0.2412060    NA    NA    NA     0
#>  4     1 0.4824121    NA    NA    NA     0
#>  5     1 0.7236181    NA    NA    NA     0
#>  6     1 0.9648241    NA    NA    NA     0
#>  7     1 1.2060302    NA    NA    NA     0
#>  8     1 1.4472362    NA    NA    NA     0
#>  9     1 1.6884422    NA    NA    NA     0
#> 10     1 1.9296482    NA    NA    NA     0
#> # ... with 794 more rows
…
Bolus Doses

A bolus dose is the default type of dose in RxODE and only requires the amt/dose

ev <- et(timeUnits="hr") %>%
    et(amt=10000, ii=12,until=24) %>%
    et(seq(0, 24, length.out=100))

ev

#> -------------------------- EventTable with 101 records ------------------------- 
#>    1 dosing records (see x$get.dosing(); add with add.dosing or et)
#>    100 observation times (see x$get.sampling(); add with add.sampling or et)
#> -- First part of x: ------------------------------------------------------------ 
#> # A tibble: 101 x 5
#>         time   amt    ii  addl  evid
#>          [h] <dbl>   [h] <int> <int>
#>  1 0.0000000    NA    NA    NA     0
#>  2 0.0000000 10000    12     1     1
#>  3 0.2424242    NA    NA    NA     0
#>  4 0.4848485    NA    NA    NA     0
#>  5 0.7272727    NA    NA    NA     0
#>  6 0.9696970    NA    NA    NA     0
#>  7 1.2121212    NA    NA    NA     0
#>  8 1.4545455    NA    NA    NA     0
#>  9 1.6969697    NA    NA    NA     0
#> 10 1.9393939    NA    NA    NA     0
#> # ... with 91 more rows
…
The next type of event is an infusion; There are two ways to specify an infusion; The first is the dur keyword.

An example of this is:

ev <- et(timeUnits="hr") %>%
    et(amt=10000, ii=12,until=24, dur=8) %>%
    et(seq(0, 24, length.out=100))

ev

#> -------------------------- EventTable with 101 records ------------------------- 
#>    1 dosing records (see x$get.dosing(); add with add.dosing or et)
#>    100 observation times (see x$get.sampling(); add with add.sampling or et)
#> -- First part of x: ------------------------------------------------------------ 
#> # A tibble: 101 x 6
#>         time   amt    ii  addl  evid   dur
#>          [h] <dbl>   [h] <int> <int>   [h]
#>  1 0.0000000    NA    NA    NA     0    NA
#>  2 0.0000000 10000    12     1     1     8
#>  3 0.2424242    NA    NA    NA     0    NA
#>  4 0.4848485    NA    NA    NA     0    NA
#>  5 0.7272727    NA    NA    NA     0    NA
#>  6 0.9696970    NA    NA    NA     0    NA
#>  7 1.2121212    NA    NA    NA     0    NA
#>  8 1.4545455    NA    NA    NA     0    NA
#>  9 1.6969697    NA    NA    NA     0    NA
#> 10 1.9393939    NA    NA    NA     0    NA
#> # ... with 91 more rows
…
It can be also specified by the rate component:

ev <- et(timeUnits="hr") %>%
    et(amt=10000, ii=12,until=24, rate=10000/8) %>%
    et(seq(0, 24, length.out=100))

ev

#> -------------------------- EventTable with 101 records ------------------------- 
#>    1 dosing records (see x$get.dosing(); add with add.dosing or et)
#>    100 observation times (see x$get.sampling(); add with add.sampling or et)
#> -- First part of x: ------------------------------------------------------------ 
#> # A tibble: 101 x 6
#>         time   amt  rate    ii  addl  evid
#>          [h] <dbl> <dbl>   [h] <int> <int>
#>  1 0.0000000    NA    NA    NA    NA     0
#>  2 0.0000000 10000  1250    12     1     1
#>  3 0.2424242    NA    NA    NA    NA     0
#>  4 0.4848485    NA    NA    NA    NA     0
#>  5 0.7272727    NA    NA    NA    NA     0
#>  6 0.9696970    NA    NA    NA    NA     0
#>  7 1.2121212    NA    NA    NA    NA     0
#>  8 1.4545455    NA    NA    NA    NA     0
#>  9 1.6969697    NA    NA    NA    NA     0
#> 10 1.9393939    NA    NA    NA    NA     0
#> # ... with 91 more rows
…
Modeled Rate and Duration of Infusion

You can model the duration, which is equivalent to NONMEM’s rate=-2. As a mnemonic you can use the dur=model instead of rate=-2

ev <- et(timeUnits="hr") %>%
    et(amt=10000, ii=12,until=24, dur=model) %>%
    et(seq(0, 24, length.out=100))

ev

#> -------------------------- EventTable with 101 records ------------------------- 
#>    1 dosing records (see x$get.dosing(); add with add.dosing or et)
#>    100 observation times (see x$get.sampling(); add with add.sampling or et)
#> -- First part of x: ------------------------------------------------------------ 
#> # A tibble: 101 x 6
#>         time   amt  rate    ii  addl  evid
#>          [h] <dbl> <dbl>   [h] <int> <int>
#>  1 0.0000000    NA    NA    NA    NA     0
#>  2 0.0000000 10000    -2    12     1     1
#>  3 0.2424242    NA    NA    NA    NA     0
#>  4 0.4848485    NA    NA    NA    NA     0
#>  5 0.7272727    NA    NA    NA    NA     0
#>  6 0.9696970    NA    NA    NA    NA     0
#>  7 1.2121212    NA    NA    NA    NA     0
#>  8 1.4545455    NA    NA    NA    NA     0
#>  9 1.6969697    NA    NA    NA    NA     0
#> 10 1.9393939    NA    NA    NA    NA     0
#> # ... with 91 more rows
…
Similarly, you may also model rate. This is equaivlent to NONMEM’s rate=-1 and is how RxODE’s event table specifies the data item as well. You can also use rate=model as a mnemonic:

ev <- et(timeUnits="hr") %>%
    et(amt=10000, ii=12,until=24, rate=model) %>%
    et(seq(0, 24, length.out=100))

ev

#> -------------------------- EventTable with 101 records ------------------------- 
#>    1 dosing records (see x$get.dosing(); add with add.dosing or et)
#>    100 observation times (see x$get.sampling(); add with add.sampling or et)
#> -- First part of x: ------------------------------------------------------------ 
#> # A tibble: 101 x 6
#>         time   amt  rate    ii  addl  evid
#>          [h] <dbl> <dbl>   [h] <int> <int>
#>  1 0.0000000    NA    NA    NA    NA     0
#>  2 0.0000000 10000    -1    12     1     1
#>  3 0.2424242    NA    NA    NA    NA     0
#>  4 0.4848485    NA    NA    NA    NA     0
#>  5 0.7272727    NA    NA    NA    NA     0
#>  6 0.9696970    NA    NA    NA    NA     0
#>  7 1.2121212    NA    NA    NA    NA     0
#>  8 1.4545455    NA    NA    NA    NA     0
#>  9 1.6969697    NA    NA    NA    NA     0
#> 10 1.9393939    NA    NA    NA    NA     0
#> # ... with 91 more rows
…
Steady State

Steady state doses; These doses are solved until a steady state is reached with a constant inter-dose interval.

ev <- et(timeUnits="hr") %>%
    et(amt=10000, ii=12, ss=1) %>%
    et(seq(0, 24, length.out=100))

ev

#> -------------------------- EventTable with 101 records ------------------------- 
#>    1 dosing records (see x$get.dosing(); add with add.dosing or et)
#>    100 observation times (see x$get.sampling(); add with add.sampling or et)
#> -- First part of x: ------------------------------------------------------------ 
#> # A tibble: 101 x 5
#>         time   amt    ii  evid    ss
#>          [h] <dbl>   [h] <int> <int>
#>  1 0.0000000    NA    NA     0    NA
#>  2 0.0000000 10000    12     1     1
#>  3 0.2424242    NA    NA     0    NA
#>  4 0.4848485    NA    NA     0    NA
#>  5 0.7272727    NA    NA     0    NA
#>  6 0.9696970    NA    NA     0    NA
#>  7 1.2121212    NA    NA     0    NA
#>  8 1.4545455    NA    NA     0    NA
#>  9 1.6969697    NA    NA     0    NA
#> 10 1.9393939    NA    NA     0    NA
#> # ... with 91 more rows
…
Reset events are implemented by evid=3 or evid=reset, for reset and evid=4 for reset and dose.

ev <- et(timeUnits="hr") %>%
    et(amt=10000, ii=12, addl=3) %>%
    et(time=6, evid=reset) %>%
    et(seq(0, 24, length.out=100))

ev

#> -------------------------- EventTable with 102 records ------------------------- 
#>    2 dosing records (see x$get.dosing(); add with add.dosing or et)
#>    100 observation times (see x$get.sampling(); add with add.sampling or et)
#> -- First part of x: ------------------------------------------------------------ 
#> # A tibble: 102 x 5
#>         time   amt    ii  addl  evid
#>          [h] <dbl>   [h] <int> <int>
#>  1 0.0000000    NA    NA    NA     0
#>  2 0.0000000 10000    12     3     1
#>  3 0.2424242    NA    NA    NA     0
#>  4 0.4848485    NA    NA    NA     0
#>  5 0.7272727    NA    NA    NA     0
#>  6 0.9696970    NA    NA    NA     0
#>  7 1.2121212    NA    NA    NA     0
#>  8 1.4545455    NA    NA    NA     0
#>  9 1.6969697    NA    NA    NA     0
#> 10 1.9393939    NA    NA    NA     0
#> # ... with 92 more rows
…
You can see all the compartments are reset to their initial values. The next dose start the dosing cycle over.

ev <- et(timeUnits="hr") %>%
    et(amt=10000, ii=12, addl=3) %>%
    et(time=6, amt=10000, evid=4) %>%
    et(seq(0, 24, length.out=100))

ev

#> -------------------------- EventTable with 102 records ------------------------- 
#>    2 dosing records (see x$get.dosing(); add with add.dosing or et)
#>    100 observation times (see x$get.sampling(); add with add.sampling or et)
#> -- First part of x: ------------------------------------------------------------ 
#> # A tibble: 102 x 5
#>         time   amt    ii  addl  evid
#>          [h] <dbl>   [h] <int> <int>
#>  1 0.0000000    NA    NA    NA     0
#>  2 0.0000000 10000    12     3     1
#>  3 0.2424242    NA    NA    NA     0
#>  4 0.4848485    NA    NA    NA     0
#>  5 0.7272727    NA    NA    NA     0
#>  6 0.9696970    NA    NA    NA     0
#>  7 1.2121212    NA    NA    NA     0
#>  8 1.4545455    NA    NA    NA     0
#>  9 1.6969697    NA    NA    NA     0
#> 10 1.9393939    NA    NA    NA     0
#> # ... with 92 more rows
…
You may also turn off a compartment, which is similar to a reset event.

ev <- et(timeUnits="hr") %>%
    et(amt=10000, ii=12, addl=3) %>%
    et(time=6, cmt="-depot", evid=2) %>%
    et(seq(0, 24, length.out=100))

ev

#> -------------------------- EventTable with 102 records ------------------------- 
#>    2 dosing records (see x$get.dosing(); add with add.dosing or et)
#>    100 observation times (see x$get.sampling(); add with add.sampling or et)
#> -- First part of x: ------------------------------------------------------------ 
#> # A tibble: 102 x 6
#>         time cmt         amt    ii  addl  evid
#>          [h] <chr>     <dbl>   [h] <int> <int>
#>  1 0.0000000 (obs)        NA    NA    NA     0
#>  2 0.0000000 (default) 10000    12     3     1
#>  3 0.2424242 (obs)        NA    NA    NA     0
#>  4 0.4848485 (obs)        NA    NA    NA     0
#>  5 0.7272727 (obs)        NA    NA    NA     0
#>  6 0.9696970 (obs)        NA    NA    NA     0
#>  7 1.2121212 (obs)        NA    NA    NA     0
#>  8 1.4545455 (obs)        NA    NA    NA     0
#>  9 1.6969697 (obs)        NA    NA    NA     0
#> 10 1.9393939 (obs)        NA    NA    NA     0
#> # ... with 92 more rows
…
