RxODE: A tool for performing simulations from Ordinary Differential Equation (ODE) models, with applications for pharmacometrics
…
## Solved RxODE object
## Dll: C:\Users\fidlema3\AppData\Local\Temp\ep\RtmpQRn46R\Rx_intro-7883d2f6590/mod1.d/mod1_x64.dll
## 
## Parameters:
##      V2      V3      KA      CL       Q     Kin    Kout    EC50 
##  40.200 297.000   0.294  18.600  10.500   1.000   1.000 200.000 
## 
## 
## Initial Conditions:
## depot centr  peri   eff 
##     0     0     0     1 
## 
## 
## First part of data:
## # A tibble: 241 x 7
##    time     depot    centr      peri      eff       C2        C3
##   <dbl>     <dbl>    <dbl>     <dbl>    <dbl>    <dbl>     <dbl>
## 1     0 10000.000    0.000    0.0000 1.000000  0.00000 0.0000000
## 2     1  7452.765 1783.897  273.1895 1.084664 44.37555 0.9198298
## 3     2  5554.370 2206.295  793.8758 1.180825 54.88296 2.6729825
## 4     3  4139.542 2086.518 1323.5783 1.228914 51.90343 4.4564927
## 5     4  3085.103 1788.795 1776.2702 1.234610 44.49738 5.9807076
## 6     5  2299.255 1466.670 2131.7169 1.214742 36.48434 7.1774981
## # ... with 235 more rows
…
## Solved RxODE object
## Dll: C:\Users\fidlema3\AppData\Local\Temp\ep\RtmpQRn46R\Rx_intro-7883d2f6590/mod1.d/mod1_x64.dll
## 
## Parameters:
##      V2      V3      KA      CL       Q     Kin    Kout    EC50 
##  40.200 297.000   0.294  18.600  10.500   1.000   1.000 200.000 
## 
## 
## Initial Conditions:
## depot centr  peri   eff 
##     0     0     0     1 
## 
## 
## First part of data:
## # A tibble: 241 x 7
##    time     depot    centr      peri      eff       C2        C3
##   <dbl>     <dbl>    <dbl>     <dbl>    <dbl>    <dbl>     <dbl>
## 1     0 10000.000    0.000    0.0000 1.000000  0.00000 0.0000000
## 2     1  7452.765 1783.897  273.1895 1.084664 44.37555 0.9198298
## 3     2  5554.370 2206.295  793.8758 1.180825 54.88296 2.6729825
## 4     3  4139.542 2086.518 1323.5783 1.228914 51.90343 4.4564927
## 5     4  3085.103 1788.795 1776.2702 1.234610 44.49738 5.9807076
## 6     5  2299.255 1466.670 2131.7169 1.214742 36.48434 7.1774981
## # ... with 235 more rows
…
## Solved RxODE object
## Dll: C:\Users\fidlema3\AppData\Local\Temp\ep\RtmpQRn46R\Rx_intro-7883d2f6590/mod1.d/mod1_x64.dll
## 
## Parameters:
##      V2      V3      KA      CL       Q     Kin    Kout    EC50 
##  40.200 297.000   0.294  18.600  10.500   1.000   1.000 200.000 
## 
## 
## Initial Conditions:
## depot centr  peri   eff 
##     0     0     0     1 
## 
## 
## First part of data:
## # A tibble: 241 x 7
##    time     depot    centr      peri      eff       C2        C3
##   <dbl>     <dbl>    <dbl>     <dbl>    <dbl>    <dbl>     <dbl>
## 1     0 10000.000    0.000    0.0000 1.000000  0.00000 0.0000000
## 2     1  7452.765 1783.897  273.1895 1.084664 44.37555 0.9198298
## 3     2  5554.370 2206.295  793.8758 1.180825 54.88296 2.6729825
## 4     3  4139.542 2086.518 1323.5783 1.228914 51.90343 4.4564927
## 5     4  3085.103 1788.795 1776.2702 1.234610 44.49738 5.9807076
## 6     5  2299.255 1466.670 2131.7169 1.214742 36.48434 7.1774981
## # ... with 235 more rows
…
## Solved RxODE object
## Dll: C:\Users\fidlema3\AppData\Local\Temp\ep\RtmpQRn46R\Rx_intro-7883d2f6590/mod1.d/mod1_x64.dll
## 
## Parameters:
##      V2      V3      KA      CL       Q     Kin    Kout    EC50 
##  40.200 297.000   0.294  18.600  10.500   1.000   1.000 200.000 
## 
## 
## Initial Conditions:
## depot centr  peri   eff 
##     0     0     0     2 
## 
## 
## First part of data:
## # A tibble: 241 x 7
##    time     depot    centr      peri      eff       C2        C3
##   <dbl>     <dbl>    <dbl>     <dbl>    <dbl>    <dbl>     <dbl>
## 1     0 10000.000    0.000    0.0000 2.000000  0.00000 0.0000000
## 2     1  7452.765 1783.897  273.1895 1.496778 44.37555 0.9198299
## 3     2  5554.370 2206.295  793.8759 1.366782 54.88295 2.6729829
## 4     3  4139.542 2086.517 1323.5786 1.313536 51.90341 4.4564937
## 5     4  3085.103 1788.793 1776.2706 1.272430 44.49735 5.9807092
## 6     5  2299.255 1466.669 2131.7173 1.231204 36.48431 7.1774995
## # ... with 235 more rows
…
## Solved RxODE object
## Dll: C:\Users\fidlema3\AppData\Local\Temp\ep\RtmpQRn46R\Rx_intro-7883d2f6590/mod1.d/mod1_x64.dll
## 
## Parameters:
##      V2      V3      KA      CL       Q     Kin    Kout    EC50 
##  40.200 297.000   0.294  18.600  10.500   1.000   1.000 200.000 
## 
## 
## Initial Conditions:
## depot centr  peri   eff 
##     0     0     0     2 
## 
## 
## First part of data:
## # A tibble: 20 x 7
##        time     depot     centr      peri      eff       C2        C3
##       <dbl>     <dbl>     <dbl>     <dbl>    <dbl>    <dbl>     <dbl>
## 1 0.0000000 10000.000    0.0000   0.00000 2.000000  0.00000 0.0000000
## 2 0.2631579  9255.488  677.1371  24.26134 1.787179 16.84421 0.0816880
## 3 0.5263158  8566.406 1186.8059  88.67937 1.646825 29.52253 0.2985837
## 4 0.7894737  7928.627 1562.0986 182.59671 1.551517 38.85817 0.6148038
## 5 1.0526316  7338.331 1830.0078 297.50288 1.485338 45.52258 1.0016932
## 6 1.3157895  6791.983 2012.5211 426.63581 1.438438 50.06271 1.4364842
## # ... with 14 more rows
…
## Solved RxODE object
## Dll: C:\Users\fidlema3\AppData\Local\Temp\ep\RtmpQRn46R\Rx_intro-7883d2f6590/mod1.d/mod1_x64.dll
## 
## Parameters:
##    V2    V3    KA    CL     Q   Kin  Kout  EC50 
##  40.2 297.0   1.0  18.6  10.5   1.0   1.0 200.0 
## 
## 
## Initial Conditions:
## depot centr  peri   eff 
##     0     0     0     2 
## 
## 
## First part of data:
## # A tibble: 20 x 7
##        time     depot    centr       peri      eff        C2        C3
##       <dbl>     <dbl>    <dbl>      <dbl>    <dbl>     <dbl>     <dbl>
## 1 0.0000000 10000.000    0.000    0.00000 2.000000   0.00000 0.0000000
## 2 0.2631579  7686.205 2098.224   77.62338 1.822345  52.19463 0.2613582
## 3 0.5263158  5907.775 3348.269  267.29379 1.737850  83.29027 0.8999791
## 4 0.7894737  4540.837 4010.290  519.32777 1.692658  99.75845 1.7485784
## 5 1.0526316  3490.181 4272.980  799.73120 1.665007 106.29303 2.6926976
## 6 1.3157895  2682.625 4272.092 1085.82977 1.644283 106.27096 3.6559925
## # ... with 14 more rows
…
## Solved RxODE object
## Dll: c:/SVN/Wenping/RxODE/vignettes/rx_9726906eef62efb902a4b7e76ae11819_x64.dll
## 
## Parameters:
##      KA      V2      CL       Q      V3     Kin    Kout    EC50 
##   0.294  40.200  18.600  10.500 297.000   1.000   1.000 200.000 
## 
## 
## Initial Conditions:
## eff 
##   1 
## 
## 
## First part of data:
## # A tibble: 241 x 3
##    time      eff       C2
##   <dbl>    <dbl>    <dbl>
## 1     0 1.000000  0.00000
## 2     1 1.084665 44.37555
## 3     2 1.180826 54.88295
## 4     3 1.228914 51.90342
## 5     4 1.234610 44.49737
## 6     5 1.214743 36.48434
## # ... with 235 more rows
…
## Solved RxODE object
## Dll: c:/SVN/Wenping/RxODE/vignettes/rx_9726906eef62efb902a4b7e76ae11819_x64.dll
## 
## Parameters:
##      KA      V2      CL       Q      V3     Kin    Kout    EC50 
##   0.294  40.200  18.600  10.500 297.000   1.000   1.000 200.000 
## 
## 
## Initial Conditions:
## eff 
##   2 
## 
## 
## First part of data:
## # A tibble: 241 x 3
##    time      eff       C2
##   <dbl>    <dbl>    <dbl>
## 1     0 2.000000  0.00000
## 2     1 1.496778 44.37555
## 3     2 1.366782 54.88295
## 4     3 1.313536 51.90342
## 5     4 1.272430 44.49737
## 6     5 1.231204 36.48434
## # ... with 235 more rows
…
## Solved RxODE object
## Dll: c:/SVN/Wenping/RxODE/vignettes/rx_bc93d18d800729e5e0f7a89e749e0d7d_x64.dll
## 
## Parameters:
##      KA      CL      V2       Q      V3     Kin    Kout    EC50 
##   0.294  18.600  40.200  10.500 297.000   1.000   1.000 200.000 
## 
## 
## Initial Conditions:
## eff 
##   1 
## 
## 
## First part of data:
## # A tibble: 241 x 3
##    time      eff       C2
##   <dbl>    <dbl>    <dbl>
## 1     0 1.000000  0.00000
## 2     1 1.084665 44.37555
## 3     2 1.180826 54.88295
## 4     3 1.228914 51.90342
## 5     4 1.234610 44.49737
## 6     5 1.214743 36.48434
## # ... with 235 more rows
…
## Solved RxODE object
## Dll: c:/SVN/Wenping/RxODE/vignettes/rx_bc93d18d800729e5e0f7a89e749e0d7d_x64.dll
## 
## Parameters:
##    KA    CL    V2     Q    V3   Kin  Kout  EC50 
##  10.0  18.6  40.2  10.5 297.0   1.0   1.0 200.0 
## 
## 
## Initial Conditions:
## eff 
##   1 
## 
## 
## First part of data:
## # A tibble: 241 x 3
##    time      eff        C2
##   <dbl>    <dbl>     <dbl>
## 1     0 1.000000   0.00000
## 2     1 1.340982 130.61937
## 3     2 1.392185  64.75317
## 4     3 1.298397  33.17930
## 5     4 1.191799  18.02218
## 6     5 1.115887  10.72199
## # ... with 235 more rows
…
## 
## Time Varying Covariates

## ctime

## 
## 
## Initial Conditions:
## eff 
##   1 
## 
## 
## First part of data:
## # A tibble: 100 x 4
##        time      eff       C2      Kin
##       <dbl>    <dbl>    <dbl>    <dbl>
## 1 0.0000000 1.000000  0.00000 1.099195
## 2 0.4848485 1.067175 27.76574 1.096795
## 3 0.9696970 1.144556 43.67518 1.092837
## 4 1.4545455 1.212373 51.75572 1.087385
## 5 1.9393939 1.263980 54.76289 1.080527
## 6 2.4242424 1.298023 54.57072 1.072373
## # ... with 94 more rows
…
## 
## Time Varying Covariates

## ctime

## 
## 
## Initial Conditions:
## eff 
##   1 
## 
## 
## First part of data:
## # A tibble: 100 x 4
##        time      eff       C2      Kin
##       <dbl>    <dbl>    <dbl>    <dbl>
## 1 0.0000000 1.000000  0.00000 1.099195
## 2 0.4848485 1.067628 27.76574 1.096795
## 3 0.9696970 1.145644 43.67518 1.092837
## 4 1.4545455 1.214226 51.75572 1.087385
## 5 1.9393939 1.266668 54.76289 1.080527
## 6 2.4242424 1.301568 54.57072 1.072373
## # ... with 94 more rows
…
## Solved RxODE object
## Dll: c:/SVN/Wenping/RxODE/vignettes/rx_bd3ce07252955888e3cdda1168868950_x64.dll
## 
## Parameters:
## mu 
##  1 
## 
## 
## Initial Conditions:
##  y dy 
##  2  0 
## 
## 
## First part of data:
## # A tibble: 200 x 3
##         time        y          dy
##        <dbl>    <dbl>       <dbl>
## 1 0.00000000 22.00000  0.00000000
## 2 0.05025126 21.99781 -0.04555302
## 3 0.10050251 21.99552 -0.04555778
## 4 0.15075377 21.99323 -0.04556254
## 5 0.20100503 21.99094 -0.04556731
## 6 0.25125628 21.98865 -0.04557207
## # ... with 194 more rows
…
## Solved RxODE object
## Dll: c:/SVN/Wenping/RxODE/vignettes/rx_bd3ce07252955888e3cdda1168868950_x64.dll
## 
## Parameters:
##   mu 
## 1000 
## 
## 
## Initial Conditions:
##  y dy 
##  2  0 
## 
## 
## First part of data:
## # A tibble: 200 x 3
##         time        y            dy
##        <dbl>    <dbl>         <dbl>
## 1 0.00000000 22.00000  0.000000e+00
## 2 0.05025126 22.00000 -4.554866e-05
## 3 0.10050251 22.00000 -4.554866e-05
## 4 0.15075377 21.99999 -4.554867e-05
## 5 0.20100503 21.99999 -4.554867e-05
## 6 0.25125628 21.99999 -4.554868e-05
## # ... with 194 more rows
…
