Using Prior Data for ODE solving • RxODE
…
print(solveData)
#> ▂▂▂▂▂▂▂▂▂▂▂▂▂▂▂▂▂▂▂▂▂▂▂▂▂▂▂ Solved RxODE object ▂▂▂▂▂▂▂▂▂▂▂▂▂▂▂▂▂▂▂▂▂▂▂▂▂▂▂
#> ── Initial Conditions ($inits): ───────────────────────────────────────────
#>  depot center 
#>      0      0 
#> ── First part of data (object): ───────────────────────────────────────────
#> # A tibble: 132 x 8
#>   id     time    ka    cl     v    cp     depot center
#>   <fct> <dbl> <dbl> <dbl> <dbl> <dbl>     <dbl>  <dbl>
#> 1 1     0      2.86  3.67  34.8  0    320.          0 
#> 2 1     0.25   2.86  3.67  34.8  4.62 157.        161.
#> 3 1     0.570  2.86  3.67  34.8  7.12  62.8       248.
#> 4 1     1.12   2.86  3.67  34.8  8.09  13.0       282.
#> 5 1     2.02   2.86  3.67  34.8  7.68   0.996     267.
#> 6 1     3.82   2.86  3.67  34.8  6.38   0.00581   222.
#> # … with 126 more rows
…
