RxODE additional model types • RxODE
…
Solving the RxODE models are the same as saving the simple ODE system, but faster of course.

et  <- et(seq(0,24,length.out=50))
cmt1 <- rxSolve(mod,et,params=c(ke=0.5))
cmt1

## ___________________________ Solved RxODE object ___________________________
## -- Parameters (x$params): -------------------------------------------------
##  
##  ke 
## 0.5 
## -- Initial Conditions (x$inits): ------------------------------------------
## named numeric(0)
## -- First part of data (object): -------------------------------------------
## # A tibble: 50 x 2
##    time  ipre
##   <dbl> <dbl>
## 1 0     10   
## 2 0.490  7.83
## 3 0.980  6.13
## 4 1.47   4.80
## 5 1.96   3.75
## 6 2.45   2.94
## # ... with 44 more rows
## ___________________________________________________________________________
…
et  <- et(amt=10,time=0,cmt=depot) %>%
    et(seq(0,24,length.out=50))
cmt1 <- rxSolve(mod,et,params=c(ke=0.5))
cmt1

## ___________________________ Solved RxODE object ___________________________
## -- Parameters (x$params): -------------------------------------------------
##  
##  ke   V 
## 0.5 1.0 
## -- Initial Conditions (x$inits): ------------------------------------------
## named numeric(0)
## -- First part of data (object): -------------------------------------------
## # A tibble: 50 x 2
##    time  ipre
##   <dbl> <dbl>
## 1 0         0
## 2 0.490     0
## 3 0.980     0
## 4 1.47      0
## 5 1.96      0
## 6 2.45      0
## # ... with 44 more rows
## ___________________________________________________________________________
…
This can be solved with the following command:

x <- mod2 %>%  solve(theta, ev)
print(x)

## ___________________________ Solved RxODE object ___________________________
## -- Parameters ($params): --------------------------------------------------
##  
##      KA      V2      CL       Q      V3     Kin    Kout    EC50 
##   0.294  40.200  18.600  10.500 297.000   1.000   1.000 200.000 
## -- Initial Conditions ($inits): -------------------------------------------
## eff 
##   1 
## -- First part of data (object): -------------------------------------------
## # A tibble: 241 x 3
##    time    C2   eff
##     [h] <dbl> <dbl>
## 1     0   0    1   
## 2     1  44.4  1.08
## 3     2  54.9  1.18
## 4     3  51.9  1.23
## 5     4  44.5  1.23
## 6     5  36.5  1.21
## # ... with 235 more rows
## ___________________________________________________________________________
…
This can be solved for different initial conditions easily:

x <- mod2 %>%  solve(theta, ev,c(eff=2))
print(x)

## ___________________________ Solved RxODE object ___________________________
## -- Parameters ($params): --------------------------------------------------
##  
##      KA      V2      CL       Q      V3     Kin    Kout    EC50 
##   0.294  40.200  18.600  10.500 297.000   1.000   1.000 200.000 
## -- Initial Conditions ($inits): -------------------------------------------
## eff 
##   2 
## -- First part of data (object): -------------------------------------------
## # A tibble: 241 x 3
##    time    C2   eff
##     [h] <dbl> <dbl>
## 1     0   0    2   
## 2     1  44.4  1.50
## 3     2  54.9  1.37
## 4     3  51.9  1.31
## 5     4  44.5  1.27
## 6     5  36.5  1.23
## # ... with 235 more rows
## ___________________________________________________________________________
…
x <- mod3 %>%  solve(ev)
print(x)

## ___________________________ Solved RxODE object ___________________________
## -- Parameters ($params): --------------------------------------------------
##  
##      KA      CL      V2       Q      V3     Kin    Kout    EC50 
##   0.294  18.600  40.200  10.500 297.000   1.000   1.000 200.000 
## -- Initial Conditions ($inits): -------------------------------------------
## eff 
##   1 
## -- First part of data (object): -------------------------------------------
## # A tibble: 241 x 3
##    time    C2   eff
##     [h] <dbl> <dbl>
## 1     0   0    1   
## 2     1  44.4  1.08
## 3     2  54.9  1.18
## 4     3  51.9  1.23
## 5     4  44.5  1.23
## 6     5  36.5  1.21
## # ... with 235 more rows
## ___________________________________________________________________________
Note that you do not specify the parameters when solving the system since they are built into the model, but you can override the parameters:

x <- mod3 %>%  solve(c(KA=10),ev)
print(x)

## ___________________________ Solved RxODE object ___________________________
## -- Parameters ($params): --------------------------------------------------
##  
##    KA    CL    V2     Q    V3   Kin  Kout  EC50 
##  10.0  18.6  40.2  10.5 297.0   1.0   1.0 200.0 
## -- Initial Conditions ($inits): -------------------------------------------
## eff 
##   1 
## -- First part of data (object): -------------------------------------------
## # A tibble: 241 x 3
##    time    C2   eff
##     [h] <dbl> <dbl>
## 1     0   0    1   
## 2     1 131.   1.34
## 3     2  64.8  1.39
## 4     3  33.2  1.30
## 5     4  18.0  1.19
## 6     5  10.7  1.12
## # ... with 235 more rows
## ___________________________________________________________________________
…
