RxODE Covariates • RxODE
…
set.seed(10)
## Now use iCov to simulate a 4-id sample
r1 <- solve(mod3, ev,
            # Create individual covariate data-frame
            iCov=data.frame(id=1:4, WT=rnorm(4, 70, 10)),
            # in this case it would be useful to keep the WT in the output dataset
            keep="WT")
print(r1)

## ▂▂▂▂▂▂▂▂▂▂▂▂▂▂▂▂▂▂▂▂▂▂▂▂▂▂▂▂▂▂ Solved RxODE object ▂▂▂▂▂▂▂▂▂▂▂▂▂▂▂▂▂▂▂▂▂▂▂▂▂▂▂▂▂
## ── Initial Conditions ($inits): ────────────────────────────────────────────────
## eff 
##   1 
## ── First part of data (object): ────────────────────────────────────────────────
## # A tibble: 400 x 6
##   id         time    CL    C2   eff    WT
##   <fct>       [h] <dbl> <dbl> <dbl> <dbl>
## 1 1     0.0000000  18.6   0    1     70.2
## 2 1     0.4848485  18.6  27.8  1.03  70.2
## 3 1     0.9696970  18.6  43.7  1.08  70.2
## 4 1     1.4545455  18.6  51.7  1.13  70.2
## 5 1     1.9393939  18.6  54.7  1.18  70.2
## 6 1     2.4242424  18.6  54.5  1.21  70.2
## # … with 394 more rows
## ▂▂▂▂▂▂▂▂▂▂▂▂▂▂▂▂▂▂▂▂▂▂▂▂▂▂▂▂▂▂▂▂▂▂▂▂▂▂▂▂▂▂▂▂▂▂▂▂▂▂▂▂▂▂▂▂▂▂▂▂▂▂▂▂▂▂▂▂▂▂▂▂▂▂▂▂▂▂▂▂
…
r1 <- solve(mod3, ev, covs_interpolation="linear")
print(r1)
#> ▂▂▂▂▂▂▂▂▂▂▂▂▂▂▂▂▂▂▂▂▂▂▂▂▂▂▂▂▂▂ Solved RxODE object ▂▂▂▂▂▂▂▂▂▂▂▂▂▂▂▂▂▂▂▂▂▂▂▂▂▂▂▂▂
#> ── Parameters ($params): ───────────────────────────────────────────────────────
#>  
#>         KA         CL         V2          Q         V3       Kin0       Kout 
#>   0.294000  18.600000  40.200000  10.500000 297.000000   1.000000   1.000000 
#>       EC50         Tz        amp         pi 
#> 200.000000   8.000000   0.100000   3.141593 
#> ── Initial Conditions ($inits): ────────────────────────────────────────────────
#> eff 
#>   1 
#> ── First part of data (object): ────────────────────────────────────────────────
#> # A tibble: 100 x 4
#>        time    C2   Kin   eff
#>         [h] <dbl> <dbl> <dbl>
#> 1 0.0000000   0    1.1   1   
#> 2 0.4848485  27.8  1.10  1.07
#> 3 0.9696970  43.7  1.10  1.15
#> 4 1.4545455  51.8  1.09  1.22
#> 5 1.9393939  54.8  1.09  1.27
#> 6 2.4242424  54.6  1.08  1.30
#> # … with 94 more rows
…
r1 <- solve(mod3, ev,covs_interpolation="constant")
print(r1)
#> ▂▂▂▂▂▂▂▂▂▂▂▂▂▂▂▂▂▂▂▂▂▂▂▂▂▂▂▂▂▂ Solved RxODE object ▂▂▂▂▂▂▂▂▂▂▂▂▂▂▂▂▂▂▂▂▂▂▂▂▂▂▂▂▂
#> ── Parameters ($params): ───────────────────────────────────────────────────────
#>  
#>         KA         CL         V2          Q         V3       Kin0       Kout 
#>   0.294000  18.600000  40.200000  10.500000 297.000000   1.000000   1.000000 
#>       EC50         Tz        amp         pi 
#> 200.000000   8.000000   0.100000   3.141593 
#> ── Initial Conditions ($inits): ────────────────────────────────────────────────
#> eff 
#>   1 
#> ── First part of data (object): ────────────────────────────────────────────────
#> # A tibble: 100 x 4
#>        time    C2   Kin   eff
#>         [h] <dbl> <dbl> <dbl>
#> 1 0.0000000   0    1.1   1   
#> 2 0.4848485  27.8  1.10  1.07
#> 3 0.9696970  43.7  1.10  1.15
#> 4 1.4545455  51.8  1.09  1.22
#> 5 1.9393939  54.8  1.09  1.27
#> 6 2.4242424  54.6  1.08  1.31
#> # … with 94 more rows
…
r1 <- solve(mod3, ev,covs_interpolation="nocb")
print(r1)
#> ▂▂▂▂▂▂▂▂▂▂▂▂▂▂▂▂▂▂▂▂▂▂▂▂▂▂▂▂▂▂ Solved RxODE object ▂▂▂▂▂▂▂▂▂▂▂▂▂▂▂▂▂▂▂▂▂▂▂▂▂▂▂▂▂
#> ── Parameters ($params): ───────────────────────────────────────────────────────
#>  
#>         KA         CL         V2          Q         V3       Kin0       Kout 
#>   0.294000  18.600000  40.200000  10.500000 297.000000   1.000000   1.000000 
#>       EC50         Tz        amp         pi 
#> 200.000000   8.000000   0.100000   3.141593 
#> ── Initial Conditions ($inits): ────────────────────────────────────────────────
#> eff 
#>   1 
#> ── First part of data (object): ────────────────────────────────────────────────
#> # A tibble: 100 x 4
#>        time    C2   Kin   eff
#>         [h] <dbl> <dbl> <dbl>
#> 1 0.0000000   0    1.1   1   
#> 2 0.4848485  27.8  1.10  1.07
#> 3 0.9696970  43.7  1.10  1.15
#> 4 1.4545455  51.8  1.09  1.21
#> 5 1.9393939  54.8  1.09  1.27
#> 6 2.4242424  54.6  1.08  1.30
#> # … with 94 more rows
…
