RxODE in a pipeline • RxODE
…
#>     intersect, setdiff, setequal, union
pars <- rxInits(Ribba2012);
pars <- pars[regexpr("(prop|eta)",names(pars)) == -1]
print(pars)
#>        k     tkde     tkpq    tkqpp tlambdap   tgamma tdeltaqp     tpt0 
#> 1.00e+02 2.40e-01 2.95e-02 3.10e-03 1.21e-01 7.29e-01 8.67e-03 7.13e+00 
#>      tq0 
#> 4.12e+01
## This is the exported method for simulation of Theta/Omega internally in RxODE
df <- rxSimThetaOmega(params=pars, omega=omega,dfSub=760,
                      thetaMat=thetaMat, thetaLower=0, nSub=60,nStud=60) %>%
    filter(tkde > tlambdap) %>% as.tbl()
## You could also simulate more and bind them together to a data frame.
print(df)
#> # A tibble: 3,120 x 16
#>        k  tkde   tkpq  tkqpp tlambdap tgamma tdeltaqp  tpt0   tq0 eta.pt0
#>    <dbl> <dbl>  <dbl>  <dbl>    <dbl>  <dbl>    <dbl> <dbl> <dbl>   <dbl>
#>  1   100 0.392 0.0295 0.0813    0.136   1.30   0.0225  7.16  42.4   0.845
#>  2   100 0.392 0.0295 0.0813    0.136   1.30   0.0225  7.16  42.4   0.137
#>  3   100 0.392 0.0295 0.0813    0.136   1.30   0.0225  7.16  42.4   0.944
#>  4   100 0.392 0.0295 0.0813    0.136   1.30   0.0225  7.16  42.4  -0.977
#>  5   100 0.392 0.0295 0.0813    0.136   1.30   0.0225  7.16  42.4  -0.715
#>  6   100 0.392 0.0295 0.0813    0.136   1.30   0.0225  7.16  42.4  -1.14 
#>  7   100 0.392 0.0295 0.0813    0.136   1.30   0.0225  7.16  42.4  -1.92 
#>  8   100 0.392 0.0295 0.0813    0.136   1.30   0.0225  7.16  42.4  -0.441
#>  9   100 0.392 0.0295 0.0813    0.136   1.30   0.0225  7.16  42.4   0.715
#> 10   100 0.392 0.0295 0.0813    0.136   1.30   0.0225  7.16  42.4  -0.981
#> # … with 3,110 more rows, and 6 more variables: eta.q0 <dbl>,
#> #   eta.lambdap <dbl>, eta.kqp <dbl>, eta.qpp <dbl>, eta.deltaqp <dbl>,
#> #   eta.kde <dbl>
…
