RxODE in a pipeline • RxODE
…
pars <- pars[regexpr("(prop|eta)",names(pars)) == -1]
print(pars)
#>        k     tkde     tkpq    tkqpp tlambdap   tgamma tdeltaqp     tpt0 
#> 1.00e+02 2.40e-01 2.95e-02 3.10e-03 1.21e-01 7.29e-01 8.67e-03 7.13e+00 
#>      tq0 
#> 4.12e+01
## This is the exported method for simulation of Theta/Omega internally in RxODE
df <- rxSimThetaOmega(params=pars, omega=omega,dfSub=760,
                      thetaMat=thetaMat, thetaLower=0, nSub=60,nStud=60) %>%
    filter(tkde > tlambdap) %>% as.tbl()
#> Warning: `as.tbl()` was deprecated in dplyr 1.0.0.
#> Please use `tibble::as_tibble()` instead.
## You could also simulate more and bind them together to a data frame.
print(df)
#> # A tibble: 2,100 × 16
#>        k  tkde   tkpq tkqpp tlambdap tgamma tdeltaqp  tpt0   tq0 eta.pt0 eta.q0
#>    <dbl> <dbl>  <dbl> <dbl>    <dbl>  <dbl>    <dbl> <dbl> <dbl>   <dbl>  <dbl>
#>  1   100  1.60 0.0295  1.25    0.149   1.30    0.414  7.60  42.6  2.31   0.199 
#>  2   100  1.60 0.0295  1.25    0.149   1.30    0.414  7.60  42.6  1.35   0.0514
#>  3   100  1.60 0.0295  1.25    0.149   1.30    0.414  7.60  42.6 -0.404  1.08  
#>  4   100  1.60 0.0295  1.25    0.149   1.30    0.414  7.60  42.6 -0.177  0.0311
#>  5   100  1.60 0.0295  1.25    0.149   1.30    0.414  7.60  42.6 -0.771  0.945 
#>  6   100  1.60 0.0295  1.25    0.149   1.30    0.414  7.60  42.6  0.883  0.0507
#>  7   100  1.60 0.0295  1.25    0.149   1.30    0.414  7.60  42.6 -0.368  0.932 
#>  8   100  1.60 0.0295  1.25    0.149   1.30    0.414  7.60  42.6  1.43   0.223 
#>  9   100  1.60 0.0295  1.25    0.149   1.30    0.414  7.60  42.6  0.0627 0.154 
#> 10   100  1.60 0.0295  1.25    0.149   1.30    0.414  7.60  42.6  0.242  0.143 
#> # … with 2,090 more rows, and 5 more variables: eta.lambdap <dbl>,
#> #   eta.kqp <dbl>, eta.qpp <dbl>, eta.deltaqp <dbl>, eta.kde <dbl>
…
