Using Prior Data for ODE solving • RxODE
…
#>  3 3    
#>  4 4    
#>  5 5    
#>  6 6    
#>  7 7    
#>  8 8    
#>  9 9    
#> 10 10   
#> 11 11   
#> 12 12   
#> ── Initial Conditions ($inits): ────────────────────────────────────────────────
#>  depot center 
#>      0      0 
#> ── First part of data (object): ────────────────────────────────────────────────
#> # A tibble: 132 × 8
#>      id  time    ka    cl     v    cp     depot center
#>   <int> <dbl> <dbl> <dbl> <dbl> <dbl>     <dbl>  <dbl>
#> 1     1  0     2.86  3.67  34.8  0    320.          0 
#> 2     1  0.25  2.86  3.67  34.8  4.62 157.        161.
#> 3     1  0.57  2.86  3.67  34.8  7.12  62.8       248.
#> 4     1  1.12  2.86  3.67  34.8  8.09  13.0       282.
#> 5     1  2.02  2.86  3.67  34.8  7.68   0.996     267.
#> 6     1  3.82  2.86  3.67  34.8  6.38   0.00581   222.
#> # … with 126 more rows
#> ▂▂▂▂▂▂▂▂▂▂▂▂▂▂▂▂▂▂▂▂▂▂▂▂▂▂▂▂▂▂▂▂▂▂▂▂▂▂▂▂▂▂▂▂▂▂▂▂▂▂▂▂▂▂▂▂▂▂▂▂▂▂▂▂▂▂▂▂▂▂▂▂▂▂▂▂▂▂▂▂

## Of course the fasest way to solve if you don't care about the RxODE extra parameters is

solveData <- rxSolve(theo, parsDf, d, returnType="data.frame")

## solved data
dplyr::as.tbl(solveData)
#> Warning: `as.tbl()` was deprecated in dplyr 1.0.0.
#> Please use `tibble::as_tibble()` instead.
#> # A tibble: 132 × 8
#>       id  time    ka    cl     v    cp   depot center
#>    <int> <dbl> <dbl> <dbl> <dbl> <dbl>   <dbl>  <dbl>
#>  1     1  0     2.86  3.67  34.8  0    3.20e+2    0  
#>  2     1  0.25  2.86  3.67  34.8  4.62 1.57e+2  161. 
#>  3     1  0.57  2.86  3.67  34.8  7.12 6.28e+1  248. 
#>  4     1  1.12  2.86  3.67  34.8  8.09 1.30e+1  282. 
#>  5     1  2.02  2.86  3.67  34.8  7.68 9.96e-1  267. 
#>  6     1  3.82  2.86  3.67  34.8  6.38 5.81e-3  222. 
#>  7     1  5.1   2.86  3.67  34.8  5.58 1.50e-4  194. 
#>  8     1  7.03  2.86  3.67  34.8  4.55 6.02e-7  158. 
#>  9     1  9.05  2.86  3.67  34.8  3.68 1.77e-9  128. 
#> 10     1 12.1   2.86  3.67  34.8  2.66 9.43e-9   92.6
#> # … with 122 more rows
…
