RxODE Covariates • RxODE
…
## ▂▂▂▂▂▂▂▂▂▂▂▂▂▂▂▂▂▂▂▂▂▂▂▂▂▂▂▂▂▂ Solved RxODE object ▂▂▂▂▂▂▂▂▂▂▂▂▂▂▂▂▂▂▂▂▂▂▂▂▂▂▂▂▂
## ── Parameters ($params): ───────────────────────────────────────────────────────
##      KA      V2       Q      V3     Kin    Kout    EC50      Tz     amp 
##   0.294  40.200  10.500 297.000   1.000   1.000 200.000   8.000   0.100 
## ── Initial Conditions ($inits): ────────────────────────────────────────────────
## eff 
##   1 
## ── First part of data (object): ────────────────────────────────────────────────
## # A tibble: 400 x 6
##      id  time    CL    C2   eff    WT
##   <int>   [h] <dbl> <dbl> <dbl> <dbl>
## 1     1 0      18.6   0    1     70.2
## 2     1 0.485  18.6  27.8  1.03  70.2
## 3     1 0.970  18.6  43.7  1.08  70.2
## 4     1 1.45   18.6  51.7  1.13  70.2
## 5     1 1.94   18.6  54.7  1.18  70.2
## 6     1 2.42   18.6  54.5  1.21  70.2
## # … with 394 more rows
## ▂▂▂▂▂▂▂▂▂▂▂▂▂▂▂▂▂▂▂▂▂▂▂▂▂▂▂▂▂▂▂▂▂▂▂▂▂▂▂▂▂▂▂▂▂▂▂▂▂▂▂▂▂▂▂▂▂▂▂▂▂▂▂▂▂▂▂▂▂▂▂▂▂▂▂▂▂▂▂▂
…
Now there is a covariate present in the event dataset, the system can be solved by combining the dataset and the model:

r1 <- solve(mod3, ev, covs_interpolation="linear")
print(r1)
#> ▂▂▂▂▂▂▂▂▂▂▂▂▂▂▂▂▂▂▂▂▂▂▂▂▂▂▂▂▂▂ Solved RxODE object ▂▂▂▂▂▂▂▂▂▂▂▂▂▂▂▂▂▂▂▂▂▂▂▂▂▂▂▂▂
#> ── Parameters ($params): ───────────────────────────────────────────────────────
#>         KA         CL         V2          Q         V3       Kin0       Kout 
#>   0.294000  18.600000  40.200000  10.500000 297.000000   1.000000   1.000000 
#>       EC50         Tz        amp         pi 
#> 200.000000   8.000000   0.100000   3.141593 
#> ── Initial Conditions ($inits): ────────────────────────────────────────────────
#> eff 
#>   1 
#> ── First part of data (object): ────────────────────────────────────────────────
#> # A tibble: 100 x 4
#>    time    C2   Kin   eff
#>     [h] <dbl> <dbl> <dbl>
#> 1 0       0    1.1   1   
#> 2 0.485  27.8  1.10  1.07
#> 3 0.970  43.7  1.10  1.15
#> 4 1.45   51.8  1.09  1.22
#> 5 1.94   54.8  1.09  1.27
#> 6 2.42   54.6  1.08  1.30
#> # … with 94 more rows
…
In RxODE the default covariate interpolation is be the last observation carried forward (locf), or constant approximation. This is equivalent to R’s approxfun with method="constant".

r1 <- solve(mod3, ev,covs_interpolation="constant")
print(r1)
#> ▂▂▂▂▂▂▂▂▂▂▂▂▂▂▂▂▂▂▂▂▂▂▂▂▂▂▂▂▂▂ Solved RxODE object ▂▂▂▂▂▂▂▂▂▂▂▂▂▂▂▂▂▂▂▂▂▂▂▂▂▂▂▂▂
#> ── Parameters ($params): ───────────────────────────────────────────────────────
#>         KA         CL         V2          Q         V3       Kin0       Kout 
#>   0.294000  18.600000  40.200000  10.500000 297.000000   1.000000   1.000000 
#>       EC50         Tz        amp         pi 
#> 200.000000   8.000000   0.100000   3.141593 
#> ── Initial Conditions ($inits): ────────────────────────────────────────────────
#> eff 
#>   1 
#> ── First part of data (object): ────────────────────────────────────────────────
#> # A tibble: 100 x 4
#>    time    C2   Kin   eff
#>     [h] <dbl> <dbl> <dbl>
#> 1 0       0    1.1   1   
#> 2 0.485  27.8  1.10  1.07
#> 3 0.970  43.7  1.10  1.15
#> 4 1.45   51.8  1.09  1.22
#> 5 1.94   54.8  1.09  1.27
#> 6 2.42   54.6  1.08  1.31
#> # … with 94 more rows
…
You can also use NONMEM’s preferred interpolation style of next observation carried backward (NOCB):

r1 <- solve(mod3, ev,covs_interpolation="nocb")
print(r1)
#> ▂▂▂▂▂▂▂▂▂▂▂▂▂▂▂▂▂▂▂▂▂▂▂▂▂▂▂▂▂▂ Solved RxODE object ▂▂▂▂▂▂▂▂▂▂▂▂▂▂▂▂▂▂▂▂▂▂▂▂▂▂▂▂▂
#> ── Parameters ($params): ───────────────────────────────────────────────────────
#>         KA         CL         V2          Q         V3       Kin0       Kout 
#>   0.294000  18.600000  40.200000  10.500000 297.000000   1.000000   1.000000 
#>       EC50         Tz        amp         pi 
#> 200.000000   8.000000   0.100000   3.141593 
#> ── Initial Conditions ($inits): ────────────────────────────────────────────────
#> eff 
#>   1 
#> ── First part of data (object): ────────────────────────────────────────────────
#> # A tibble: 100 x 4
#>    time    C2   Kin   eff
#>     [h] <dbl> <dbl> <dbl>
#> 1 0       0    1.1   1   
#> 2 0.485  27.8  1.10  1.07
#> 3 0.970  43.7  1.10  1.15
#> 4 1.45   51.8  1.09  1.21
#> 5 1.94   54.8  1.09  1.27
#> 6 2.42   54.6  1.08  1.30
#> # … with 94 more rows
…
