Nesting levels in RxODE • RxODE
…
#> unhandled error message: EE:[lsoda] 70000 steps taken before reaching tout
#>  @(lsoda.c:748

#> Warning: some ID(s) could not solve the ODEs correctly; These values are
#> replaced with 'NA'

print(s)

#> ______________________________ Solved RxODE object _____________________________
#> -- Parameters ($params): -------------------------------------------------------
#> # A tibble: 8,000 x 24
#>    sim.id id    `inv.Cl(inv==1)` `inv.Cl(inv==2)` `inv.Ka(inv==1)`
#>     <int> <fct>            <dbl>            <dbl>            <dbl>
#>  1      1 1                0.123           -0.120          -0.0939
#>  2      1 2                0.123           -0.120          -0.0939
#>  3      1 3                0.123           -0.120          -0.0939
#>  4      1 4                0.123           -0.120          -0.0939
#>  5      1 5                0.123           -0.120          -0.0939
#>  6      1 6                0.123           -0.120          -0.0939
#>  7      1 7                0.123           -0.120          -0.0939
#>  8      1 8                0.123           -0.120          -0.0939
#>  9      1 9                0.123           -0.120          -0.0939
#> 10      1 10               0.123           -0.120          -0.0939
#> # ... with 7,990 more rows, and 19 more variables: inv.Ka(inv==2) <dbl>,
#> #   eye.Cl(eye==1) <dbl>, eye.Cl(eye==2) <dbl>, eye.Ka(eye==1) <dbl>,
#> #   eye.Ka(eye==2) <dbl>, iov.Cl(occ==1) <dbl>, iov.Cl(occ==2) <dbl>,
#> #   iov.Ka(occ==1) <dbl>, iov.Ka(occ==2) <dbl>, V2 <dbl>, V3 <dbl>, TCl <dbl>,
#> #   eta.Cl <dbl>, TKA <dbl>, eta.Ka <dbl>, Q <dbl>, Kin <dbl>, Kout <dbl>,
#> #   EC50 <dbl>
#> -- Initial Conditions ($inits): ------------------------------------------------
#> depot centr  peri   eff 
#>     0     0     0     1 
#> 
#> Simulation with uncertainty in:
#> * parameters (s$thetaMat for changes)
#> * omega matrix (s$omegaList)
#> 
#> -- First part of data (object): ------------------------------------------------
#> # A tibble: 976,000 x 18
#>   sim.id    id  time inv.Cl  inv.Ka  eye.Cl  eye.Ka iov.Cl  iov.Ka    C2
#>    <int> <int>   [h]  <dbl>   <dbl>   <dbl>   <dbl>  <dbl>   <dbl> <dbl>
#> 1      1     1   0.0  0.123 -0.0939 -0.0366 -0.171  0.0671 0.00720  0   
#> 2      1     1   0.1  0.123 -0.0939 -0.268   0.0820 0.0671 0.00720  6.92
#> 3      1     1   4.0  0.123 -0.0939 -0.0366 -0.171  0.0671 0.00720 25.1 
#> 4      1     1   4.1  0.123 -0.0939 -0.268   0.0820 0.0671 0.00720 24.4 
#> 5      1     1   8.0  0.123 -0.0939 -0.0366 -0.171  0.0671 0.00720 33.8 
#> 6      1     1   8.1  0.123 -0.0939 -0.268   0.0820 0.0671 0.00720 24.6 
#> # ... with 975,994 more rows, and 8 more variables: C3 <dbl>, CL <dbl>,
#> #   KA <dbl>, ef0 <dbl>, depot <dbl>, centr <dbl>, peri <dbl>, eff <dbl>
…
