RxODE additional model types • RxODE
…
Solving the RxODE models are the same as saving the simple ODE system, but faster of course.

et  <- et(seq(0,24,length.out=50))
cmt1 <- rxSolve(mod,et,params=c(ke=0.5))
cmt1

## ______________________________ Solved RxODE object _____________________________
## -- Parameters (x$params): ------------------------------------------------------
##  ke 
## 0.5 
## -- Initial Conditions (x$inits): -----------------------------------------------
## named numeric(0)
## -- First part of data (object): ------------------------------------------------
## # A tibble: 50 x 2
##    time  ipre
##   <dbl> <dbl>
## 1 0     10   
## 2 0.490  7.83
## 3 0.980  6.13
## 4 1.47   4.80
## 5 1.96   3.75
## 6 2.45   2.94
## # ... with 44 more rows
## ________________________________________________________________________________
…
This then acts as an ODE model; You specify a dose to the depot compartment and then solve the system:

et  <- et(amt=10,time=0,cmt=depot) %>%
    et(seq(0,24,length.out=50))
cmt1 <- rxSolve(mod,et,params=c(ke=0.5))
cmt1

## ______________________________ Solved RxODE object _____________________________
## -- Parameters (x$params): ------------------------------------------------------
##  ke   V 
## 0.5 1.0 
## -- Initial Conditions (x$inits): -----------------------------------------------
## named numeric(0)
## -- First part of data (object): ------------------------------------------------
## # A tibble: 50 x 2
##    time  ipre
##   <dbl> <dbl>
## 1 0     10   
## 2 0.490  7.83
## 3 0.980  6.13
## 4 1.47   4.80
## 5 1.96   3.75
## 6 2.45   2.94
## # ... with 44 more rows
## ________________________________________________________________________________
…
This can be solved with the following command:

x <- mod2 %>%  solve(theta, ev)
print(x)

## ______________________________ Solved RxODE object _____________________________
## -- Parameters ($params): -------------------------------------------------------
##      CL      V2       Q      V3      KA     Kin    Kout    EC50 
##  18.600  40.200  10.500 297.000   0.294   1.000   1.000 200.000 
## -- Initial Conditions ($inits): ------------------------------------------------
## eff 
##   1 
## -- First part of data (object): ------------------------------------------------
## # A tibble: 241 x 3
##    time    C2   eff
##     [h] <dbl> <dbl>
## 1     0 249.   1   
## 2     1 121.   1.35
## 3     2  60.3  1.38
## 4     3  31.0  1.28
## 5     4  17.0  1.18
## 6     5  10.2  1.11
## # ... with 235 more rows
## ________________________________________________________________________________
…
This can be solved for different initial conditions easily:

x <- mod2 %>%  solve(theta, ev,c(eff=2))
print(x)

## ______________________________ Solved RxODE object _____________________________
## -- Parameters ($params): -------------------------------------------------------
##      CL      V2       Q      V3      KA     Kin    Kout    EC50 
##  18.600  40.200  10.500 297.000   0.294   1.000   1.000 200.000 
## -- Initial Conditions ($inits): ------------------------------------------------
## eff 
##   2 
## -- First part of data (object): ------------------------------------------------
## # A tibble: 241 x 3
##    time    C2   eff
##     [h] <dbl> <dbl>
## 1     0 249.   2   
## 2     1 121.   1.93
## 3     2  60.3  1.67
## 4     3  31.0  1.41
## 5     4  17.0  1.23
## 6     5  10.2  1.13
## # ... with 235 more rows
## ________________________________________________________________________________
…
x <- mod3 %>%  solve(ev)
print(x)

## ______________________________ Solved RxODE object _____________________________
## -- Parameters ($params): -------------------------------------------------------
##      KA      CL      V2       Q      V3     Kin    Kout    EC50 
##   0.294  18.600  40.200  10.500 297.000   1.000   1.000 200.000 
## -- Initial Conditions ($inits): ------------------------------------------------
## eff 
##   1 
## -- First part of data (object): ------------------------------------------------
## # A tibble: 241 x 3
##    time    C2   eff
##     [h] <dbl> <dbl>
## 1     0 249.   1   
## 2     1 121.   1.35
## 3     2  60.3  1.38
## 4     3  31.0  1.28
## 5     4  17.0  1.18
## 6     5  10.2  1.11
## # ... with 235 more rows
## ________________________________________________________________________________

Note that you do not specify the parameters when solving the system since they are built into the model, but you can override the parameters:

x <- mod3 %>%  solve(c(KA=10),ev)
print(x)

## ______________________________ Solved RxODE object _____________________________
## -- Parameters ($params): -------------------------------------------------------
##    KA    CL    V2     Q    V3   Kin  Kout  EC50 
##  10.0  18.6  40.2  10.5 297.0   1.0   1.0 200.0 
## -- Initial Conditions ($inits): ------------------------------------------------
## eff 
##   1 
## -- First part of data (object): ------------------------------------------------
## # A tibble: 241 x 3
##    time    C2   eff
##     [h] <dbl> <dbl>
## 1     0 249.   1   
## 2     1 121.   1.35
## 3     2  60.3  1.38
## 4     3  31.0  1.28
## 5     4  17.0  1.18
## 6     5  10.2  1.11
## # ... with 235 more rows
## ________________________________________________________________________________
…
