• RxODE
…
print(sim)

## ▂▂▂▂▂▂▂▂▂▂▂▂▂▂▂▂▂▂▂▂▂▂▂▂▂▂▂▂▂▂ Solved RxODE object ▂▂▂▂▂▂▂▂▂▂▂▂▂▂▂▂▂▂▂▂▂▂▂▂▂▂▂▂▂
## ── Parameters ($params): ───────────────────────────────────────────────────────
## # A tibble: 10,000 x 10
##    sim.id id      tcl crcl.cl  CLCR    eta.v    tv    WT   tka  eta.ka
##     <int> <fct> <dbl>   <dbl> <dbl>    <dbl> <dbl> <dbl> <dbl>   <dbl>
##  1      1 1      27.0    1.04  54.0  0.907    2.00  71.8  5.69 -0.153 
##  2      1 2      27.0    1.04  19.7 -0.225    2.00  80.2  5.69  0.249 
##  3      1 3      27.0    1.04  45.7  1.66     2.00  66.3  5.69  0.236 
##  4      1 4      27.0    1.04  73.9  0.556    2.00  69.4  5.69 -0.156 
##  5      1 5      27.0    1.04  91.4  0.296    2.00  45.5  5.69 -0.331 
##  6      1 6      27.0    1.04  94.9 -0.680    2.00  35.8  5.69  0.372 
##  7      1 7      27.0    1.04  13.6 -0.327    2.00  95.9  5.69 -0.0760
##  8      1 8      27.0    1.04  66.2  0.589    2.00  57.3  5.69  0.688 
##  9      1 9      27.0    1.04  71.7 -0.611    2.00  41.0  5.69  0.212 
## 10      1 10     27.0    1.04  76.6  0.00250  2.00  66.5  5.69  0.243 
## # … with 9,990 more rows
## ── Initial Conditions ($inits): ────────────────────────────────────────────────
## named numeric(0)
## 
## Simulation with uncertainty in:
## ● parameters (sim$thetaMat for changes)
## ● omega matrix (sim$omegaList)
## ● sigma matrix (sim$sigmaList)
## 
## ── First part of data (object): ────────────────────────────────────────────────
## # A tibble: 50,000 x 8
##   sim.id    id       time    cl     v    ka ipred   obs
##    <int> <int>        [h] <dbl> <dbl> <dbl> <dbl> <dbl>
## 1      1     1 0.20072222 -696.  356.  4.88    NA    NA
## 2      1     1 0.79938985 -696.  356.  4.88    NA    NA
## 3      1     1 2.50526151 -696.  356.  4.88    NA    NA
## 4      1     1 3.38595486 -696.  356.  4.88    NA    NA
## 5      1     1 9.28579107 -696.  356.  4.88    NA    NA
## 6      1     2 0.04197341 -992.  128.  7.30    NA    NA
## # … with 49,994 more rows
## ▂▂▂▂▂▂▂▂▂▂▂▂▂▂▂▂▂▂▂▂▂▂▂▂▂▂▂▂▂▂▂▂▂▂▂▂▂▂▂▂▂▂▂▂▂▂▂▂▂▂▂▂▂▂▂▂▂▂▂▂▂▂▂▂▂▂▂▂▂▂▂▂▂▂▂▂▂▂▂▂
…
